memory_initialization_radix=16;
memory_initialization_vector=
000000000000,
7884CC84B478,
78FCB4FCCC78,
002838381000,
001038381000,
001010381000,
001038381000,
000030300000,
FCFCCCCCFCFC,
003048483000,
FCCCB4B4CCFC,
083048483000,
003048303000,
101810706000,
0C342438D8C0,
28B04CC83450,
006078600000,
001878180000,
103810381000,
484848004800,
7CE868282800,
304030300830,
0000FC000000,
10381038107C,
103810101000,
101010381000,
001078100000,
002078200000,
008080FC0000,
0048FC480000,
0010387C0000,
007C38100000,
000000000000,
101010001000,
484800000000,
287C287C2800,
103860187020,
6468102C4C00,
205034483400,
301020000000,
102020201000,
201010102000,
483078304800,
00107C100000,
000000301020,
000078000000,
000000003000,
040810204000,
384848487000,
103010103800,
700830407800,
700830087000,
0818287C0800,
784070087000,
384070483000,
780810202000,
304830483000,
304838106000,
003000003000,
003000301020,
102040201000,
007800780000,
201008102000,
700830003000,
38444C4C4038,
304848784800,
704870487000,
384040403800,
704848487000,
784070407800,
784070404000,
384048483800,
484878484800,
381010103800,
080808483000,
485060504800,
404040407800,
446C54444400,
4464544C4400,
304848483000,
704870404000,
304848483018,
704870484400,
384030087000,
7C1010101000,
484848487800,
484848502000,
4444546C4400,
442810284400,
444428101000,
781020407800,
382020203800,
402010080400,
701010107000,
102844000000,
0000000000FC,
302010000000,
003848483800,
407048487000,
003840403800,
083848483800,
304878403800,
1C2078202000,
003848380870,
407048484800,
100030107800,
100070101060,
404850704800,
301010107800,
006854544400,
007048484800,
003048483000,
007048487040,
003848483808,
005860404000,
003860187000,
207820201800,
004848483800,
004848502000,
004454542800,
004830304800,
004848502040,
007810207800,
181060101800,
101010001010,
602018206000,
245448000000,
102844447C00,
384040403860,
480048483800,
081078403800,
102838483800,
480038483800,
402038483800,
382838483800,
003840403860,
102878403800,
20F82000F800,
402078403800,
101010101060,
304830107800,
402030107800,
483048784800,
303048784800,
187840707800,
006C1C703C00,
3C507C505C00,
102830483000,
480030483000,
402030483000,
102848483800,
402048483800,
480048502040,
483048483000,
480048487800,
103840381000,
182070207800,
44287C101000,
704878505800,
0C1038106000,
081038483800,
081030107800,
081030483000,
081048483800,
780070484800,
780068584800,
384838007800,
304830007800,
001000304038,
000000FCC0C0,
0000FC040400,
80B088903800,
8090B0B81000,
002000202020,
000024482400,
000048244800,
A854A854A854,
D86CB4D86CB4,
74ECDCB874EC,
202020202020,
2020E0202020,
20E020E02020,
5050D0505050,
0000F0505050,
00E020E02020,
50D010D05050,
505050505050,
00F010D05050,
50D010F00000,
5050F0000000,
20E020E00000,
0000E0202020,
20203C000000,
2020FC000000,
0000FC202020,
20203C202020,
0000FC000000,
2020FC202020,
203C203C2020,
50505C505050,
505C407C0000,
007C405C5050,
50FC00FC0000,
00FC00DC5050,
505C405C5050,
00FC00FC0000,
50DC00DC5050,
20FC00FC0000,
5050FC000000,
00FC00FC2020,
0000FC505050,
50507C000000,
203C203C0000,
003C203C2020,
00007C505050,
5050FC505050,
20FC20FC2020,
2020E0000000,
00003C202020,
FCFCFCFCFCFC,
000000FCFCFC,
E0E0E0E0E0E0,
1C1C1C1C1C1C,
FCFCFC000000,
68B090B06800,
304850487040,
F88880808000,
F89090909800,
F8603060F800,
789090906000,
484848487080,
F82020203800,
2070A8702000,
7088F8887000,
70885050D800,
181070907000,
0050A8A85000,
0870A8A87080,
7880F8807800,
708888888800,
F800F800F800,
20F82000F800,
601860007800,
186018007C00,
102828202020,
202020A0A040,
2000F8002000,
0048B048B000,
609060000000,
60F060000000,
000020000000,
181010905030,
704848480000,
601020700000,
006060000000,
000000000000;
